<?xml version="1.0"?>
<svg xmlns="http://www.w3.org/2000/svg" xmlns:xlink="http://www.w3.org/1999/xlink" version="1.1" id="Capa_1" x="0px" y="0px" viewBox="0 0 59.414 59.414" style="enable-background:new 0 0 59.414 59.414;" xml:space="preserve" width="512px" height="512px" class=""><g transform="matrix(1 0 0 1 0 0)"><g>
	<polygon points="43.854,59.414 14.146,29.707 43.854,0 45.268,1.414 16.975,29.707 45.268,58  " data-original="#48A0DC" class="active-path" data-old_color="#48A0DC" fill="#FFFFFF"/>
</g><style xmlns=""/></g> </svg>
